module gitlab.com/kotakmakan/kumparan

go 1.12

require (
	github.com/graphql-go/graphql v0.7.8
	github.com/graphql-go/handler v0.2.3
	github.com/labstack/echo v3.3.10+incompatible
	github.com/labstack/gommon v0.2.9 // indirect
	golang.org/x/crypto v0.0.0-20190701094942-4def268fd1a4 // indirect
)
